{"fullname":"  Grant  Fuhr","award":4,"goals":2756,"team":["Buffalo Sabres"]}
{"fullname":"  Martin  Brodeur","award":18,"goals":2603,"team":["New Jersey Devils"]}
{"fullname":"  Tony  Esposito","award":9,"goals":2563,"team":["Chicago Blackhawks","Chicago Black Hawks"]}
{"fullname":"  Patrick  Roy","award":18,"goals":2546,"team":["Colorado Avalanche"]}
{"fullname":"  Curtis  Joseph","award":1,"goals":2516,"team":["Calgary Flames"]}
{"fullname":"  John  Vanbiesbrouck","award":3,"goals":2503,"team":["Florida Panthers"]}
{"fullname":"  Mike  Liut","award":3,"goals":2491,"team":["Cincinnati Stingers"]}
{"fullname":"  Richard  Brodeur","award":1,"goals":2447,"team":["Hartford Whalers"]}
{"fullname":"  Gump  Worsley","award":5,"goals":2432,"team":["Minnesota North Stars"]}
{"fullname":"  Terry  Sawchuk","award":12,"goals":2401,"team":["Boston Bruins"]}
